# Clé;Valeur;;;;
identifier:DOI;10.5072/AMMA-CATCH.CL.Pond_Gha;;;;
contributorName:DataCollector;Nogmana Soumaguel;affiliation;IRD-Mali/GET;nameIdentifier:ORCID;
contributorName:WorkPackageLeader;;affiliation;;nameIdentifier:ORCID;
contributorName:ProjectMember;Laurent Kergoat;affiliation;CNRS/GET;nameIdentifier:ORCID;0000-0003-1792-8473
contributorName:Other;Pierre Hiernaux;affiliation;CNRS/GET;nameIdentifier:ORCID;0000-0002-1764-9178
relatedIdentifier:IsSupplementedBy:DOI;;;;;
