# Clé;Valeur;;;;
identifier:DOI;10.5072/AMMA-CATCH.CL.VegHerb_G;;;;
contributorName:DataCollector;Nogmana Soumaguel;affiliation;IRD-Mali/GET;nameIdentifier:ORCID;
contributorName:DataCollector;Mamadou Diawara;affiliation;USTTB/LET;nameIdentifier:ORCID;
contributorName:WorkPackageLeader;Pierre Hiernaux;affiliation;CNRS/GET;nameIdentifier:ORCID;0000-0002-1764-9178
contributorName:ProjectMember;Mamadou Diawara;affiliation;USTTB/LET;nameIdentifier:ORCID;
contributorName:Other;;affiliation;;nameIdentifier:ORCID;
relatedIdentifier:IsSupplementedBy:DOI;;;;;
