"# Clé";Valeur;;;;
creatorName;Cryobs-Clim-CLB;;;;
publisher;"CNRS - OSUG - Meteo France - Irstea";;;;
description:Abstract;"This dataset is part of the Cryobs-Clim-CLB  (CRYosphere, an OBServatory of the CLIMate – Col du Lac Blanc) observatory";;;;
contributorName:ContactPerson;florence.naaim@irstea.fr;affiliation;UGA/Irstea;nameIdentifier:ORCID;0000-0002-7175-5270
contributorName:Distributor;"Centre d'Etude de la Neige  (Meteo France / CNRM)";;;;
contributorName:Distributor;"UR ETNA (Irstea)";;;;
contributorName:Distributor;"OSUG Data Center (France)";;;;
contributorName:HostingInstitution;"Université Grenoble Alpes (France) - UGA";;;;
contributorName:Funder;"Meteo France";;;;
contributorName:Funder;"IRSTEA (Institut national de Recherche en Sciences et Technologies pour l'environnement et l'agriculture)";;;;
contributorName:Funder;"Centre National de la Recherche Scientifique (France) - CNRS, Institut de Sciences de l'Univers (France) - INSU";;;;
contributorName:Funder;"Observatoire des Sciences de l'Univers de Grenoble (France) - OSUG";;;;
contributorName:ProjectLeader;"Florence Naaim";affiliation;UGA/Irstea;nameIdentifier:ORCID;0000-0002-7175-5270
contributorName:Sponsor;"Cryobs-Clim / Alliance nationale de recherche pour l’environnement (AllEnvi)";;;;
contributorName:Sponsor;"Région Rhône-Alpes";;;;
contributorName:Sponsor;"Infrastructure de Recherche Observation de la Zone Critique, Applications,  Recherche (OZCAR) / Ministère de l'Éducation nationale, de l'Enseignement supérieur et de la Recherche";;;;
contributorName:Sponsor;"LabEx OSUG@2020";;;;
contributorName:Sponsor;"ALCOTRA INTERREG MAP3 program (FEDER)";;;;
contributorName:ResearchGroup;"Centre National de la Recherche en Météorologie (France) - CNRM - France";;;;
contributorName:ResearchGroup;"Institut national de recherche en sciences et technologies pour l'environnement et l'agriculture - IRSTEA - France";;;;
contributorName:ResearchGroup;"Graduate School of Environmental Studies - Nagoya University - Nagoya - Japan";;;;
resourceType:Dataset;"Meteorological and blowing snow observations site ";;;;
relatedIdentifier:Cites:URL;https://cryobsclim.osug.fr/?lang=en;;;;
relatedIdentifier:IsPartOf:DOI;10.5072/CRYOBSCLIM.CLB.all;;;;
format;CSV;;;;
rights;"Data access and use are ruled by the CRYOBS-CLIM data policy.";;;;
rights;"Always quote below citation to Guyomarch et al. (2019) when using data.
G. Guyomarc'h, H. bellot, V. Vionnet, F. Naaim-Bouvet, Y. Deliot, F. Fontaine, P. Pugliese, M. Naaim, K. Nishimura, A meteorological and blowing snow data set (2000-2016) from a high altitude alpine site (Col du Lac Blanc, France, 2720 m a.s.l), Earth System Science Data, 11(2019), 57-69, https://doi.org/10.5194/essd-11-57-2019. The following acknowledging sentence should appear in publications using Cryobs-Clim-CLB data and products: ""Cryobs-Clim Col du Lac Blanc is funded by Meteo France, Irstea, the Institut National des Sciences de l’Univers (INSU/CNRS),  and the Observatoire des Sciences de l’Univers de Grenoble (OSUG / Université Grenoble Alpes)”. You are invited to contact the PI(s) or lead scientist for more information about the data and to include the acknowledgement sentence in any publication using the data.";;;;
