#Name;affiliation;nameIdentifier:ORCID
Bernard Cappelaere;IRD/HSM;0000-0001-8533-1164
Christophe Peugeot;IRD/HSM;0000-0003-2161-125X
Emmanuel Lawin;UAC/INE;0000-0003-4751-3439
Eric Mougin;CNRS/GET;0000-0002-7569-5906
Gérémy Panthou;UGA/IGE;0000-0002-6906-3654
Guillaume Favreau;IRD/IGE;0000-0001-7358-9301
Ibrahim Bouzou Moussa;UAM/Dept Géographie;0000-0002-3140-8987
Jean-Martial Cohard;UGA/IGE;
Jérôme Demarty;IRD/HSM;0000-0001-5173-9030
Josiane Seghieri;IRD/HSM;0000-0003-0764-2017
Luc Séguis;IRD/HSM;
Manuela Grippa;UPS/GET;0000-0002-4889-7975
Marielle Gosset;IRD/GET;0000-0003-1064-7003
Monique Oï;IRD/HSM;
Pierre Hiernaux;CNRS/GET;0000-0002-1764-9178
Sylvie Galle;IRD/IGE;0000-0002-3100-8510
Thierry Lebel;IRD/IGE;0000-0002-1297-6751
Véronique Chaffard;IRD/IGE;0000-0003-2823-7117

