# Clé;# Valeur;# Clé (affiliation/rightsURI);# Valeur attribut;# Clé (nameIdentifier:ORCID);# Valeur attribut
identifier:DOI;10.5072/GNSS.products.EPOS.2019.rapid;;;;
resourceType:Dataset;"GNSS products (time series positionings)";;;;
title;GNSS positions calculated in the framework of the EPOS initiative with IGS rapid products;;;;
title:TranslatedTitle;GNSS positions calculated in the framework of the EPOS initiative: -Global Navigation Satellite System- positions calculated in the framework of the EPOS -European Plate Observing System- initiative with IGS -International GNSS center- rapid products;;;;
contributorName:DataManager;isterre-epos-gnss@univ-grenoble-alpes.fr;;;;
contributorName:Funder;Université Grenoble Alpes (France) - UGA;;;;
relatedIdentifier:IsPartOf:DOI;10.5072/GNSS.products.all;;;;
relatedIdentifier:IsPartOf:DOI;10.5072/GNSS.products.EPOS;;;;
relatedIdentifier:IsPartOf:DOI;10.5072/GNSS.products.EPOS.2019;;;;
relatedIdentifier:Cites:URL;http://www.isterre.fr/article4271;;;;
relatedIdentifier:Cites:URL;http://gnssdata-epos.oca.eu/#/site;;;;
format;sinex;;;;
description:Abstract;This dataset include all GNSS solutions processed by ISTerre with IGS rapid products in the framework of the EPOS initiative. These products are position time series (North, East and Vertical) calculated from rinex files using the double difference method with GAMIT software. These products are updated every day.;;;;
description:SeriesInformation;This dataset provides GNSS solutions of continuous stations calculated with IGS rapid products in the framework of the EPOS initiative. The EPOS stations used for the processing can be found on this link : http://gnssdata-epos.oca.eu/#/site. The EPOS solutions processed by ISTerre can be visualized and downloaded on this link : http://gnssdata-epos.oca.eu/#/site. In the framework of the EPOS initiative, two EPOS processing centers have been identified. ISTerre is one of them and describe in the latter link as UGA-CNRS center.;;;;

