# Clé;# Valeur;# Clé (affiliation/rightsURI);# Valeur attribut;# Clé (nameIdentifier:ORCID);# Valeur attribut
creatorName;gnss-products;;;;
publisher;"CNRS, OSUG, ISTERRE";;;;
publicationYear;2019;;;;
subject:main;"GNSS products";;;;
subject:var;"GNSS data analysis";;;;
subject:var;"Time serie positioning";;;;
contributorName:ContactPerson;anne.socquet@univ-grenoble-alpes.fr;;;;
contributorName:ContactPerson;andrea.walpersdorf@univ-grenoble-alpes.fr;;;;
contributorName:DataManager;nathalie.cotte@univ-grenoble-alpes.fr;;;;
contributorName:Distributor;"Institut des Sciences de la Terre (France) - ISTerre";;;;
contributorName:Distributor;"Observatoire des Sciences de l'Univers de Grenoble (France) - OSUG";;;;
contributorName:Distributor;"Centre National de la Recherche Scientifique (France) - CNRS";;;;
contributorName:HostingInstitution;"Université Grenoble Alpes (France) - UGA";;;;
contributorName:Funder;"Centre National de la Recherche Scientifique (France) - CNRS, Institut des Sciences de l'Univers (France) - INSU";;;;
contributorName:Funder;"Observatoire des Sciences de l'Univers de Grenoble (France) - OSUG";;;;
contributorName:Funder;"REseau SIsmologique & géodésique Français (France) - RESIF";;;;
contributorName:ProjectLeader;"Anne Socquet";affiliation;UGA;nameIdentifier:ORCID;0000-0002-9208-7136
contributorName:ProjectLeader;"Andrea Walpersdorf";affiliation;UGA;nameIdentifier:ORCID;0000-0003-1777-9172
contributorName:Sponsor;"Labex OSUG@2020";;;;
contributorName:Sponsor;"European Plate Observing System (Europe) - EPOS";;;;
contributorName:ResearchGroup;"Institut des Sciences de la Terre (France) - ISTerre";;;;
contributorName:DataCollector;"Anne Socquet";affiliation;UGA;nameIdentifier:ORCID;0000-0002-9208-7136
contributorName:DataCollector;"Andrea Walpersdorf";affiliation;UGA;nameIdentifier:ORCID;0000-0003-1777-9172
contributorName:DataCollector;"Nathalie Cotte";affiliation;CNRS;nameIdentifier:ORCID;0000-0002-1596-0755
contributorName:DataCollector;"Aline Deprez";affiliation;CNRS;nameIdentifier:ORCID;0000-0002-2553-9497
contributorName:DataCollector;"Alizia Tarayoun";affiliation;CNRS;nameIdentifier:ORCID;0000-0003-2580-6222
date:Collected;2000-01-01/;;;;
language;en;;;;
format;pos;;;;
format;PBO;;;;
rights;"License: CC BY 4.0";rightsURI;https://creativecommons.org/licenses/by/4.0;;
rights;"Data access and use are ruled by the OSUG data policy.";;;;
rights;"The following acknowledging sentence should appear in publications using ISTerre GNSS products: ""GNSS products are calculated and provided by the Institut of Sciences de la Terre (ISTerre), belonging to the Institut National des Sciences de l’Univers (INSU/CNRS) and the Observatoire des Sciences de l’Univers de Grenoble (OSUG / Université Grenoble Alpes)"". 
You are invited to contact the PI(s) or lead scientist for more information about the data and to include the acknowledgement sentence in any publication using the data.
";;;;
