OHMCV.DSD.PVI.11-14.1;436
OHMCV.DSD.MRE.12-14.1;679
OHMCV.DSD.SEF.12-14.1;744
OHMCV.DSD.VB1.12-14.1;680
OHMCV.DSD.VB2.11-14.1;681
OHMCV.DSD.VB3.12-14.1;682
OHMCV.RTS.AUZ.10-14.1;656
OHMCV.REA.CEV.07-14.1;1183
OHMCV.HSS.CLA.11-14.1;993
OHMCV.ADV.CLA.13-14.1;1349
OHMCV.ERO.PRA.10-13.1;1347
OHMCV.LIM.CLA.12-14.1;994
OHMCV.SMO.CLA.13-14.1;1350
OHMCV.DSD.SOU.12-16.1;743
OHMCV.DSD.ALE.12-16.1;321
OHMCV.DSD.VAL.12-16.1;740
OHMCV.DSD.TOU.12-16.1;738
