"# Clé";Valeur;;
identifier:DOI;10.5072/DRAIXBLEONE_GAL_AIN_MET_1920;;
title;"Meteorological data at the Ainac station of the Galabre watershed";;
title:TranslatedTitle;"Données météorologiques acquises sur le site d'Ainac du bassin versant du Galabre de l'Observatoire Draix Bleone";;
subject:var;Precipitation;;
subject:var;Meteorology;;
contributorName:ProjectLeader;"Brice Boudevillain";affiliation;UGA/IGE
contributorName:DataCollector;"Romain Biron";;
contributorName:DataCollector;"Brice Boudevillain";;
contributorName:DataCollector;"Guilhem Freche";;
contributorName:DataCollector;"Cédric Legoût";;
date:Collected;2019-01-01/;;
resourceType:Dataset;"Multiple variables describing meteorological forcing at the Ainac upstream station of the Galabre watershed ";;
relatedIdentifier:Cites:URL;https://bdoh.irstea.fr/DRAIX/AINAC;;
description:Abstract;"This meteorological data set is part of the DRAIXBLEONE_GAL observatory.";;
geoLocationPlace;Ainac;;
geoLocationPoint;"44.215 6.211";;
description:SeriesInformation;"This data set contains meterological data acquired at the Ainac site located in the upstream part of the Galabre watershed. Files are in CSV format containing date and hour in UTC, air temperature in °C (TEMPA), air humidity in % (HUMA), wind speed in m/s (VV), wind direction in ° (DIRV) and rainfall amount in mm (PRCP).";;
