"# Clé";Valeur;;
identifier:DOI;10.5072/DRAIXBLEONE_GAL_ROB_SSC_0719;;
title;"Suspended Sediment Concentration of the river Galabre at the Robine station of the Galabre watershed";;
title:TranslatedTitle;"Mesures de matières en suspension acquises sur le site de la Robine sur Galabre au niveau de l'exutoire du bassin versant du Galabre de l'Observatoire Draix Bleone";;
subject:var;"Surface water";;
subject:var;Sediments;;
subject:var;"Water quality / Water chemistry";;
contributorName:DataManager;"Michel Esteves";affiliation;IRD/IGE
contributorName:Sponsor;"CNRS EC2CO 2013 project";;
contributorName:Sponsor;"SREAM ANR project (contract BLAN06 - 1 - 1391577)";;
contributorName:Sponsor;"LabEx OSUG@2020";;
contributorName:DataCollector;"Coralie Aubert";;
contributorName:DataCollector;"Romain Biron";;
contributorName:DataCollector;"Michel Esteves";;
contributorName:DataCollector;"Guilhem Freche";;
contributorName:DataCollector;"Simon Gérard";;
contributorName:DataCollector;"Cédric Legoût";;
contributorName:DataCollector;"Baptiste Lemaire";;
contributorName:DataCollector;"Fred Malinur";;
contributorName:DataCollector;"Jean-Marie Miscioscia";;
contributorName:DataCollector;"Bernard Mercier";;
contributorName:DataCollector;"Henri Mora";;
contributorName:DataCollector;"Oldrich Navratil";;
contributorName:DataCollector;"Julien Nemery";;
contributorName:DataCollector;"Guillaume Nord";;
date:Collected;"2007-01-01 /";;
resourceType:Dataset;"Suspended sediment concentration at the outlet of a mesoscale mediterranean mountainous watershed ";;
relatedIdentifier:Cites:URL;https://bdoh.irstea.fr/DRAIX/GALABRE/CMES;;
rights;"Always quote below citation to Navratil et al. (2011) when using these data. Navratil O., Esteves M., Legout C., Gratiot N., Némery J., Willmore S., Grangeon T. (2011).  Global uncertainty analysis of suspended sediment monitoring using turbidimeter in a small mountainous river catchment. Journal of Hydrology. 398: 246-259.";;
description:Abstract;"This suspended sediment concentration data set is part of the DRAIXBLEONE_GAL observatory.";;
geoLocationPoint;"44.174 6.219";;
description:SeriesInformation;"This data set contains suspended sediment concentrations acquired in the river Galabre at the Robine site, corresponding to the outlet of the Galabre watershed. Data are obtained through continuous measurements of turbidity transformed with a rating curve established on the basis of automatic sampling. Files are in CSV format containing date and hour in UTC and suspended sediment concentration in g/l (SSC).";;
